module gocraft

go 1.16

require (
	github.com/go-gl/gl v0.0.0-20210501111010-69f74958bac0 // indirect
	github.com/go-gl/glfw v0.0.0-20210715014612-ab6297867137 // indirect
	github.com/go-gl/mathgl v1.0.0 // indirect
)
